refV = 3917
0,  4.56,  4.69,  3889.00,  1.69 
1,  41.19,  41.81,  3888.44,  2.00 
2,  79.00,  79.69,  3889.19,  2.38 
3,  117.19,  117.38,  3891.62,  1.94 
4,  154.50,  156.88,  3891.56,  1.75 
5,  194.69,  195.88,  3889.00,  2.12 
6,  233.69,  234.62,  3889.50,  1.88 
7,  274.06,  274.12,  3889.56,  2.38 
8,  314.25,  312.69,  3891.31,  1.44 
9,  354.38,  352.69,  3893.00,  1.88 
10,  394.00,  393.62,  3890.75,  2.75 
11,  431.44,  436.62,  3891.31,  2.44 
12,  470.50,  473.69,  3892.12,  1.75 
13,  509.88,  511.19,  3891.62,  1.62 
14,  547.94,  549.56,  3891.94,  2.00 
15,  587.12,  588.88,  3892.19,  2.25 
16,  624.94,  626.56,  3891.19,  1.25 
17,  664.44,  667.88,  3891.69,  1.50 
18,  705.56,  706.75,  3891.06,  2.00 
19,  744.44,  747.88,  3891.56,  2.75 
20,  784.38,  785.00,  3890.88,  4.62 
21,  823.81,  823.81,  3889.69,  9.50 
22,  861.94,  863.00,  3887.69,  18.50 
23,  898.94,  900.69,  3862.50,  41.00 
24,  936.56,  939.44,  3812.38,  86.12 
25,  973.25,  976.75,  3720.19,  170.38 
26,  1015.38,  1017.75,  3545.12,  323.12 
27,  1055.62,  1057.88,  3263.94,  561.50 
28,  1096.81,  1097.19,  2868.81,  898.12 
29,  1136.81,  1137.25,  2341.62,  1351.75 
30,  1176.19,  1175.12,  1696.19,  1935.19 
31,  1215.25,  1212.81,  896.50,  2650.88 
32,  1252.44,  1252.69,  224.00,  3241.50 
33,  1290.25,  1291.25,  140.56,  3313.75 
34,  1326.62,  1327.88,  111.06,  3337.75 
35,  1365.56,  1367.31,  96.19,  3351.94 
36,  1410.31,  1407.88,  85.38,  3361.00 
37,  1450.00,  1448.00,  77.81,  3366.94 
38,  1488.38,  1488.06,  72.31,  3371.19 
39,  1527.69,  1528.12,  66.00,  3373.88 
40,  1568.12,  1567.12,  68.31,  3376.81 
41,  1606.06,  1603.88,  64.56,  3378.25 
42,  1644.75,  1642.25,  63.75,  3379.50 
43,  1681.56,  1681.62,  62.19,  3382.12 
44,  1719.06,  1721.12,  61.62,  3381.62 
45,  1757.31,  1758.62,  60.81,  3383.19 
46,  1795.00,  1796.00,  59.56,  3383.75 
47,  1835.81,  1836.50,  59.62,  3384.25 
48,  1878.38,  1879.75,  59.50,  3385.06 
49,  1918.06,  1918.94,  58.94,  3384.88 
50,  1959.50,  1957.38,  58.94,  3384.88 
51,  1997.81,  1995.12,  58.19,  3385.25 
52,  2036.12,  2032.62,  57.88,  3387.19 
53,  2072.81,  2074.44,  57.62,  3385.81 
54,  2110.44,  2114.94,  57.75,  3386.38 
55,  2149.31,  2152.19,  57.69,  3387.00 
56,  2187.25,  2190.62,  57.38,  3387.25 
57,  2228.25,  2229.44,  57.12,  3387.00 
58,  2269.19,  2269.69,  56.56,  3388.00 
59,  2308.94,  2308.62,  55.88,  3386.31 
60,  2350.19,  2349.00,  56.81,  3387.88 
61,  2386.75,  2385.62,  57.69,  3388.62 
62,  2424.44,  2423.31,  57.50,  3388.00 
63,  2460.69,  2462.12,  57.31,  3387.75 
64,  2499.88,  2499.56,  59.25,  3388.62 
65,  2540.75,  2538.62,  57.56,  3388.69 
66,  2578.00,  2578.25,  56.75,  3389.38 
67,  2617.81,  2617.62,  56.62,  3388.69 
68,  2659.50,  2658.38,  55.56,  3388.50 
69,  2700.94,  2699.31,  54.56,  3389.31 
70,  2740.75,  2738.69,  54.75,  3389.69 
71,  2777.50,  2775.69,  57.88,  3389.75 
72,  2815.44,  2813.06,  60.38,  3387.94 
73,  2852.88,  2851.19,  61.31,  3390.00 
74,  2890.38,  2888.12,  60.88,  3389.19 
75,  2932.50,  2929.44,  59.19,  3390.00 
76,  2970.62,  2969.00,  58.25,  3389.56 
77,  3010.12,  3009.31,  57.00,  3390.00 
78,  3050.94,  3048.31,  57.38,  3388.94 
79,  3091.19,  3089.19,  57.81,  3388.12 
80,  3129.62,  3127.69,  57.88,  3389.12 
81,  3167.94,  3166.19,  57.88,  3390.00 
82,  3208.12,  3204.62,  58.62,  3390.69 
83,  3245.75,  3243.06,  57.31,  3391.00 
84,  3283.56,  3280.56,  57.62,  3390.50 
85,  3321.31,  3319.50,  58.06,  3389.88 
86,  3360.44,  3359.38,  57.25,  3390.44 
87,  3400.75,  3397.88,  57.06,  3390.81 
88,  3440.81,  3436.69,  56.69,  3390.50 
89,  3479.75,  3475.19,  56.69,  3390.31 
90,  3518.88,  3518.31,  54.56,  3390.50 
91,  3557.31,  3560.12,  54.50,  3390.06 
92,  3596.81,  3596.62,  57.06,  3390.56 
93,  3637.31,  3636.75,  58.62,  3391.00 
94,  3676.19,  3675.44,  59.31,  3391.25 
95,  3716.00,  3713.00,  59.38,  3390.06 
96,  3753.69,  3753.00,  59.88,  3390.88 
97,  3792.69,  3790.88,  59.31,  3390.06 
98,  3832.44,  3831.00,  59.12,  3391.44 
99,  3871.06,  3869.88,  58.75,  3390.88 
100,  3890.69,  3886.50,  61.94,  3392.00 
